[
    {
        "pseudo": "ga12heg",
        "color": "hsl(242, 79.5%, 75.1%)"
    },
    {
        "pseudo": "flo",
        "color": "hsl(318, 90%, 70%)"
    },
    {
        "pseudo": "nayosis",
        "color": "hsl(50, 67.6%, 63.7%)"
    }
]