[
    {
        "libelle": "202212092000",
        "date": "2022-12-09-2000",
        "joueurs": [
            {
                "pseudo": "ga12heg",
                "score": 23,
                "tour": 21
            },
            {
                "pseudo": "nayosis",
                "score": 49,
                "tour": 21
            }
        ]
    },
    {
        "libelle": "202212092100",
        "date": "2022-12-09-2121",
        "joueurs": [
            {
                "pseudo": "ga12heg",
                "score": 50,
                "tour": 21
            },
            {
                "pseudo": "nayosis",
                "score": 46,
                "tour": 21
            }
        ]
    },
    {
        "libelle": "202212092343",
        "date": "2022-12-09-2343",
        "joueurs": [
            {
                "pseudo": "flo",
                "score": 27,
                "tour": 21
            },
            {
                "pseudo": "nayosis",
                "score": 30,
                "tour": 20
            }
        ]
    },
    {
        "libelle": "xxx",
        "date": "2022-12-10 00:05",
        "joueurs": [
            {
                "pseudo": "flo",
                "score": 47,
                "tour": 21
            },
            {
                "pseudo": "nayosis",
                "score": 33,
                "tour": 20
            }
        ]
    },
    {
        "libelle": "xxx",
        "date": "2022-12-10 00:34",
        "joueurs": [
            {
                "pseudo": "flo",
                "score": 27,
                "tour": 22
            },
            {
                "pseudo": "nayosis",
                "score": 27,
                "tour": 21
            }
        ]
    },
    {
        "libelle": "xxx",
        "date": "2022-12-10 01:01",
        "joueurs": [
            {
                "pseudo": "flo",
                "score": 51,
                "tour": 22
            },
            {
                "pseudo": "nayosis",
                "score": 34,
                "tour": 21
            }
        ]
    },
    {
        "libelle": "xxx",
        "date": "2022-12-10 01:41",
        "joueurs": [
            {
                "pseudo": "flo",
                "score": 66,
                "tour": 30
            },
            {
                "pseudo": "nayosis",
                "score": 68,
                "tour": 31
            }
        ]
    },
    {
        "libelle": "xxx",
        "date": "2022-12-10 13:22",
        "joueurs": [
            {
                "pseudo": "ga12heg",
                "score": 19,
                "tour": 20
            },
            {
                "pseudo": "nayosis",
                "score": 50,
                "tour": 21
            }
        ]
    },
    {
        "libelle": "xxx",
        "date": "2022-12-10 16:08",
        "joueurs": [
            {
                "pseudo": "ga12heg",
                "score": 51,
                "tour": 24
            },
            {
                "pseudo": "nayosis",
                "score": 50,
                "tour": 25
            }
        ]
    },
    {
        "libelle": "xxx",
        "date": "2022-12-10 16:47",
        "joueurs": [
            {
                "pseudo": "ga12heg",
                "score": 32,
                "tour": 34
            },
            {
                "pseudo": "nayosis",
                "score": 21,
                "tour": 34
            },
            {
                "pseudo": "flo",
                "score": 37,
                "tour": 34
            }
        ]
    }
]